\relax 
\citation{Nocedal}
\@writefile{toc}{\contentsline {section}{\numberline {1}Theory of constrained optimization}{2}{}\protected@file@percent }
\newlabel{eq:generalconstrainedproblem}{{1}{2}}
\@writefile{toc}{\contentsline {subsection}{\numberline {1.1}Smoothness}{2}{}\protected@file@percent }
\@writefile{toc}{\contentsline {subsection}{\numberline {1.2}Tangent cone and constraint qualifications}{3}{}\protected@file@percent }
\@writefile{toc}{\contentsline {subsection}{\numberline {1.3}First-order optimality conditions}{4}{}\protected@file@percent }
\newlabel{eq:gradientLagrangecondition}{{9a}{4}}
\newlabel{eq:complementaryconditions}{{9e}{4}}
\newlabel{eq:KKTconditions}{{9}{4}}
\newlabel{eq:conicactiveconstraintgradients}{{15}{5}}
\@writefile{toc}{\contentsline {subsection}{\numberline {1.4}Second-order conditions}{5}{}\protected@file@percent }
\newlabel{eq:secondnecessaryconditions}{{21}{6}}
\newlabel{eq:secondsufficientconditions}{{22}{6}}
\@writefile{toc}{\contentsline {subsection}{\numberline {1.5}Second-order conditions and projected Hessian}{6}{}\protected@file@percent }
\@writefile{toc}{\contentsline {subsection}{\numberline {1.6}Other constraint qualifications}{7}{}\protected@file@percent }
\@writefile{toc}{\contentsline {subsection}{\numberline {1.7}A geometric viewpoint}{8}{}\protected@file@percent }
\@writefile{toc}{\contentsline {subsection}{\numberline {1.8}Lagrange multipliers and sensitivity}{8}{}\protected@file@percent }
\@writefile{toc}{\contentsline {subsection}{\numberline {1.9}Duality}{9}{}\protected@file@percent }
\newlabel{eq:convexinequalityproblem}{{34}{9}}
\newlabel{eq:dualobjective}{{37}{9}}
\newlabel{eq:dualproblem}{{39}{9}}
\newlabel{eq:KKTconditionsforconvexinequalityproblem}{{41}{10}}
\newlabel{eq:Wolfetduality}{{42}{10}}
\bibstyle{unsrt}
\bibdata{ref}
\bibcite{Nocedal}{1}
\gdef \@abspage@last{11}
